<?xml version="1.0" encoding="UTF-8" standalone="no"?>
<svg
   width="3840"
   height="2160"
   version="1.1"
   viewBox="0 0 1016 571.5"
   id="svg34"
   sodipodi:docname="kali-light2.svg"
   inkscape:export-filename="../2024/backgrounds/kali/kali-light2.2.png"
   inkscape:export-xdpi="96"
   inkscape:export-ydpi="96"
   inkscape:version="1.3.2 (091e20ef0f, 2023-11-25, custom)"
   xmlns:inkscape="http://www.inkscape.org/namespaces/inkscape"
   xmlns:sodipodi="http://sodipodi.sourceforge.net/DTD/sodipodi-0.dtd"
   xmlns:xlink="http://www.w3.org/1999/xlink"
   xmlns="http://www.w3.org/2000/svg"
   xmlns:svg="http://www.w3.org/2000/svg"
   xmlns:rdf="http://www.w3.org/1999/02/22-rdf-syntax-ns#"
   xmlns:cc="http://creativecommons.org/ns#"
   xmlns:dc="http://purl.org/dc/elements/1.1/">
  <sodipodi:namedview
     id="namedview1"
     pagecolor="#ffffff"
     bordercolor="#000000"
     borderopacity="0.25"
     inkscape:showpageshadow="2"
     inkscape:pageopacity="0.0"
     inkscape:pagecheckerboard="0"
     inkscape:deskcolor="#d1d1d1"
     inkscape:zoom="0.5347495"
     inkscape:cx="1504.4427"
     inkscape:cy="694.7178"
     inkscape:window-width="3840"
     inkscape:window-height="2091"
     inkscape:window-x="1080"
     inkscape:window-y="34"
     inkscape:window-maximized="1"
     inkscape:current-layer="svg34" />
  <metadata
     id="metadata38">
    <rdf:RDF>
      <cc:Work
         rdf:about="">
        <dc:format>image/svg+xml</dc:format>
        <dc:type
           rdf:resource="http://purl.org/dc/dcmitype/StillImage" />
      </cc:Work>
    </rdf:RDF>
  </metadata>
  <defs
     id="defs20">
    <linearGradient
       id="c">
      <stop
         stop-color="#23bac2"
         offset="0"
         id="stop2" />
      <stop
         stop-color="#23bac2"
         stop-opacity=".0058084"
         offset="1"
         id="stop4" />
    </linearGradient>
    <radialGradient
       id="a"
       cx="508"
       cy="285.75"
       r="508"
       gradientTransform="matrix(1.0142754,0,0,1.0218635,-7.2566878,-6.2394833)"
       gradientUnits="userSpaceOnUse"
       fx="508"
       fy="285.75">
      <stop
         stop-color="#2656a8"
         offset="0"
         id="stop7"
         style="stop-color:#23bac2;stop-opacity:1" />
      <stop
         stop-color="#2f92bd"
         offset="0.32730374"
         id="stop9"
         style="stop-color:#23bac2;stop-opacity:1" />
      <stop
         stop-color="#622e78"
         offset="1"
         id="stop11"
         style="stop-color:#316fd8;stop-opacity:1" />
    </radialGradient>
    <filter
       id="b"
       x="-.041846"
       y="-.056277"
       width="1.0837"
       height="1.1126"
       color-interpolation-filters="sRGB">
      <feGaussianBlur
         stdDeviation="2.6078096"
         id="feGaussianBlur14" />
    </filter>
    <radialGradient
       id="f"
       cx="508"
       cy="285.75"
       r="508"
       gradientTransform="matrix(.69839 0 0 .39285 153.22 173.49)"
       gradientUnits="userSpaceOnUse"
       xlink:href="#c" />
    <radialGradient
       id="e"
       cx="508"
       cy="285.75"
       r="508"
       gradientTransform="matrix(.63003 0 0 .39285 187.94 173.49)"
       gradientUnits="userSpaceOnUse"
       xlink:href="#c" />
    <radialGradient
       id="d"
       cx="508"
       cy="285.75"
       r="508"
       gradientTransform="matrix(.63003 0 0 .39285 -34.306 -620.26)"
       gradientUnits="userSpaceOnUse"
       xlink:href="#c" />
    <filter
       style="color-interpolation-filters:sRGB"
       id="filter1447"
       x="-0.0044679154"
       width="1.0089358"
       y="-0.0060086476"
       height="1.0120173">
      <feGaussianBlur
         stdDeviation="2.4162929"
         id="feGaussianBlur1449" />
    </filter>
    <clipPath
       clipPathUnits="userSpaceOnUse"
       id="clipPath2092">
      <circle
         style="opacity:0.152883;fill:#000000;fill-opacity:1;stroke-width:10.4792;stroke-linejoin:round"
         id="circle2094"
         cx="508"
         cy="285.75"
         r="169.35667" />
    </clipPath>
    <filter
       style="color-interpolation-filters:sRGB"
       id="filter2876"
       x="-0.023538251"
       width="1.0470765"
       y="-0.031655557"
       height="1.0633111">
      <feGaussianBlur
         stdDeviation="3.3681022"
         id="feGaussianBlur2878" />
    </filter>
    <filter
       style="color-interpolation-filters:sRGB"
       id="filter880"
       x="-0.3"
       width="1.6"
       y="-0.3"
       height="1.6">
      <feGaussianBlur
         stdDeviation="39.228981"
         id="feGaussianBlur882" />
    </filter>
    <clipPath
       clipPathUnits="userSpaceOnUse"
       id="clipPath1">
      <path
         d="m 1778.8732,815.92058 c 0,0 -106.5826,-7.09228 -288.0944,49.70457 -184.9739,57.87969 -289.8822,139.91815 -289.8822,139.91815 0,0 275.6938,-153.93264 586.885,-162.67846 z m 397.5685,167.36504 13.8573,-0.90383 c 0,0 -79.389,-96.32504 -231.3487,-143.24032 85.4212,34.72177 159.772,80.73071 217.4892,144.14362 z m 22.6776,40.02148 c 2.1305,-3.694 9.0077,11.7346 14.231,18.2161 0.2212,1.2942 0.5884,2.0841 -2.4396,1.461 -0.2551,-1.3305 -0.6942,-1.7163 -0.6942,-1.7163 0,0 -7.3092,-4.3491 -9.5501,-7.4339 -2.2428,-3.0851 -2.6408,-8.4813 -1.5475,-10.5275 z m 186.4819,458.5322 c 0,0 16.8537,-193.4967 -287.1421,-238.0989 -38.5322,-5.6534 -87.2579,-10.004 -136.5392,-10.1291 -243.6548,3.2215 -252.5329,-281.023 -68.9348,-295.36631 76.0895,-6.27855 166.9493,34.76788 255.7795,76.13481 -0.3295,11.0317 0.1267,20.835 7.3739,29.8927 7.2454,9.0557 35.0778,18.9354 43.971,24.0381 8.8933,5.1047 37.3826,23.2184 54.841,45.944 3.7863,-7.0821 35.4047,-27.6639 35.4047,-27.6639 0,0 -7.5746,0.1648 -25.1958,-6.421 -17.6236,-6.5859 -38.5361,-26.5127 -39.0312,-27.6639 -0.4938,-1.1536 -0.8227,-2.9644 3.296,-3.7882 3.1271,-2.6329 -3.9549,-11.1965 -7.0844,-14.3233 -3.127,-3.129 -24.0442,-38.69482 -24.5363,-39.51875 -0.4937,-0.82353 -0.6595,-1.64595 -2.1404,-2.63475 -4.6122,-1.48335 -24.8689,2.14038 -24.8689,2.14038 0,0 -31.1524,-15.30028 -41.8923,-48.28724 0.1572,5.77814 -5.342,12.08693 0,25.36101 -16.2429,-6.87118 -30.1946,-18.59037 -41.2006,-47.55024 -6.5496,16.47194 0,26.94463 0,26.94463 0,0 -38.2488,-10.68775 -44.3679,-45.96283 -6.7166,15.8347 0,25.35911 0,25.35911 0,0 -62.3546,-32.53568 -165.9666,-33.00812 -69.3657,-6.36284 -83.811,-128.383 -77.3821,-148.9323 0,0 -100.0592,-52.73196 -297.0179,-76.02897 -196.9588,-23.2989 -358.4844,-3.51099 -358.4844,-3.51099 0,0 348.8315,-16.74104 628.3086,96.39685 9.4999,42.48946 38.0788,113.25733 53.4728,147.27686 -44.0428,30.45127 -93.7058,59.08535 -101.4463,160.64125 -7.7314,101.5521 79.5817,190.8851 187.8539,193.6441 102.8107,5.4765 173.8469,6.2544 259.9521,50.8913 82.1858,45.4413 149.5672,183.9043 156.2419,308.436 7.2026,-92.3944 -27.4715,-291.0879 -189.2788,-351.4281 226.1518,39.5755 246.0397,207.224 246.0397,207.224 z m -612.0567,-681.07084 -8.1373,-26.24694 c 0,0 -134.2677,-23.84315 -314.7969,-11.01165 -180.5291,12.83225 -362.7968,76.0252 -362.7968,76.0252 0,0 372.96,-93.84568 685.7197,-38.76661"
         stroke-width="8.67817"
         id="path2"
         style="fill:#000000;fill-opacity:1" />
    </clipPath>
    <filter
       style="color-interpolation-filters:sRGB"
       id="filter2876-3"
       x="-0.082461328"
       width="1.1649227"
       y="-0.11089861"
       height="1.2217972">
      <feGaussianBlur
         stdDeviation="11.79944"
         id="feGaussianBlur2878-6" />
    </filter>
    <filter
       style="color-interpolation-filters:sRGB"
       id="filter4"
       x="-3.1190929e-07"
       width="1.0000006"
       y="-4.1946922e-07"
       height="1.0000008">
      <feGaussianBlur
         stdDeviation="0.00016868363"
         id="feGaussianBlur4" />
    </filter>
    <filter
       inkscape:collect="always"
       style="color-interpolation-filters:sRGB"
       id="filter5"
       x="-0.00085818313"
       y="-0.0014564534"
       width="1.0017164"
       height="1.0029129">
      <feGaussianBlur
         inkscape:collect="always"
         stdDeviation="0.45719763"
         id="feGaussianBlur5" />
    </filter>
    <clipPath
       clipPathUnits="userSpaceOnUse"
       id="clipPath5">
      <path
         d="m 1778.8732,815.92058 c 0,0 -106.5826,-7.09228 -288.0944,49.70457 -184.9739,57.87969 -289.8822,139.91815 -289.8822,139.91815 0,0 275.6938,-153.93264 586.885,-162.67846 z m 397.5685,167.36504 13.8573,-0.90383 c 0,0 -79.389,-96.32504 -231.3487,-143.24032 85.4212,34.72177 159.772,80.73071 217.4892,144.14362 z m 22.6776,40.02148 c 2.1305,-3.694 9.0077,11.7346 14.231,18.2161 0.2212,1.2942 0.5884,2.0841 -2.4396,1.461 -0.2551,-1.3305 -0.6942,-1.7163 -0.6942,-1.7163 0,0 -7.3092,-4.3491 -9.5501,-7.4339 -2.2428,-3.0851 -2.6408,-8.4813 -1.5475,-10.5275 z m 186.4819,458.5322 c 0,0 16.8537,-193.4967 -287.1421,-238.0989 -38.5322,-5.6534 -87.2579,-10.004 -136.5392,-10.1291 -243.6548,3.2215 -252.5329,-281.023 -68.9348,-295.36631 76.0895,-6.27855 166.9493,34.76788 255.7795,76.13481 -0.3295,11.0317 0.1267,20.835 7.3739,29.8927 7.2454,9.0557 35.0778,18.9354 43.971,24.0381 8.8933,5.1047 37.3826,23.2184 54.841,45.944 3.7863,-7.0821 35.4047,-27.6639 35.4047,-27.6639 0,0 -7.5746,0.1648 -25.1958,-6.421 -17.6236,-6.5859 -38.5361,-26.5127 -39.0312,-27.6639 -0.4938,-1.1536 -0.8227,-2.9644 3.296,-3.7882 3.1271,-2.6329 -3.9549,-11.1965 -7.0844,-14.3233 -3.127,-3.129 -24.0442,-38.69482 -24.5363,-39.51875 -0.4937,-0.82353 -0.6595,-1.64595 -2.1404,-2.63475 -4.6122,-1.48335 -24.8689,2.14038 -24.8689,2.14038 0,0 -31.1524,-15.30028 -41.8923,-48.28724 0.1572,5.77814 -5.342,12.08693 0,25.36101 -16.2429,-6.87118 -30.1946,-18.59037 -41.2006,-47.55024 -6.5496,16.47194 0,26.94463 0,26.94463 0,0 -38.2488,-10.68775 -44.3679,-45.96283 -6.7166,15.8347 0,25.35911 0,25.35911 0,0 -62.3546,-32.53568 -165.9666,-33.00812 -69.3657,-6.36284 -83.811,-128.383 -77.3821,-148.9323 0,0 -100.0592,-52.73196 -297.0179,-76.02897 -196.9588,-23.2989 -358.4844,-3.51099 -358.4844,-3.51099 0,0 348.8315,-16.74104 628.3086,96.39685 9.4999,42.48946 38.0788,113.25733 53.4728,147.27686 -44.0428,30.45127 -93.7058,59.08535 -101.4463,160.64125 -7.7314,101.5521 79.5817,190.8851 187.8539,193.6441 102.8107,5.4765 173.8469,6.2544 259.9521,50.8913 82.1858,45.4413 149.5672,183.9043 156.2419,308.436 7.2026,-92.3944 -27.4715,-291.0879 -189.2788,-351.4281 226.1518,39.5755 246.0397,207.224 246.0397,207.224 z m -612.0567,-681.07084 -8.1373,-26.24694 c 0,0 -134.2677,-23.84315 -314.7969,-11.01165 -180.5291,12.83225 -362.7968,76.0252 -362.7968,76.0252 0,0 372.96,-93.84568 685.7197,-38.76661"
         stroke-width="8.67817"
         id="path6"
         style="fill:#000000;fill-opacity:1" />
    </clipPath>
    <filter
       inkscape:collect="always"
       style="color-interpolation-filters:sRGB"
       id="filter6"
       x="-0.005062328"
       y="-0.0067846921"
       width="1.0101247"
       height="1.0135694">
      <feGaussianBlur
         inkscape:collect="always"
         stdDeviation="0.60309208"
         id="feGaussianBlur6" />
    </filter>
    <filter
       inkscape:collect="always"
       style="color-interpolation-filters:sRGB"
       id="filter8"
       x="-0.0016716325"
       y="-0.0022550511"
       width="1.0033433"
       height="1.0045101">
      <feGaussianBlur
         inkscape:collect="always"
         stdDeviation="0.23919025"
         id="feGaussianBlur8" />
    </filter>
  </defs>
  <rect
     y="9.9999997e-06"
     width="1016"
     height="571.5"
     fill="url(#a)"
     style="fill:url(#a);paint-order:fill markers stroke"
     id="rect22"
     x="0" />
  <g
     id="g12963"
     transform="matrix(1,0,0,-1,0,571.50002)">
    <path
       d="M 1.0000001e-6,9.9999996e-6 1016,571.50001 H 1.0000001e-6 Z"
       style="opacity:0.02;fill:#ffffff;stroke-width:2"
       id="path12955" />
    <path
       d="M 508,9.9999996e-6 H 2.0000001e-6 V 571.50001 H 508 Z"
       style="opacity:0.03;stroke-width:2"
       id="path12957" />
    <path
       d="M 508,9.9999996e-6 1016,571.50001 H 508 Z"
       style="opacity:0.05;fill:#ffffff;stroke-width:2"
       id="path12959" />
    <path
       d="M 1.0000001e-6,571.50001 508,9.9999996e-6 h 508 z"
       style="opacity:0.02;stroke-width:2"
       id="path12961" />
  </g>
  <g
     id="g9543">
    <path
       d="M 1.0000001e-6,9.9999996e-6 1016,571.50001 H 1.0000001e-6 Z"
       style="opacity:0.02;fill:#ffffff;stroke-width:2"
       id="path20" />
    <path
       d="M 508,9.9999996e-6 H 2.0000001e-6 V 571.50001 H 508 Z"
       style="opacity:0.03;stroke-width:2"
       id="path22" />
    <path
       d="M 508,9.9999996e-6 1016,571.50001 H 508 Z"
       style="opacity:0.05;fill:#ffffff;stroke-width:2"
       id="path24" />
    <path
       d="M 1.0000001e-6,571.50001 508,9.9999996e-6 h 508 z"
       style="opacity:0.02;stroke-width:2"
       id="path26" />
  </g>
  <circle
     style="opacity:0.15;fill:#1e488e;fill-opacity:1;stroke-width:15.2258;stroke-linejoin:round;filter:url(#filter880)"
     id="path848"
     cx="508"
     cy="285.75"
     r="156.91592"
     transform="matrix(0.68048391,0,0,0.68048391,162.31416,91.301714)" />
  <g
     id="g2884">
    <path
       d="m 470.12083,218.34585 c 0,0 -28.2,-1.8765 -76.225,13.151 -48.941,15.314 -76.698,37.02 -76.698,37.02 0,0 72.944,-40.728 155.28,-43.042 z m 105.19,44.282 3.6664,-0.23914 c 0,0 -21.005,-25.486 -61.211,-37.899 22.601,9.1868 42.273,21.36 57.544,38.138 z m 6.0001,10.589 c 0.56369,-0.97735 2.3833,3.1048 3.7653,4.8197 0.0585,0.34241 0.15568,0.5514 -0.64548,0.38654 -0.0675,-0.35201 -0.18368,-0.45409 -0.18368,-0.45409 0,0 -1.9339,-1.1507 -2.5268,-1.9669 -0.5934,-0.81626 -0.6987,-2.244 -0.40944,-2.7854 z m 49.34,121.32 c 0,0 4.4592,-51.196 -75.973,-62.997 -10.195,-1.4958 -23.087,-2.6469 -36.126,-2.68 -64.467,0.85235 -66.816,-74.354 -18.239,-78.149 20.132,-1.6612 44.172,9.199 67.675,20.144 -0.0872,2.9188 0.0335,5.5126 1.951,7.9091 1.917,2.396 9.281,5.01 11.634,6.3601 2.353,1.3506 9.8908,6.1432 14.51,12.156 1.0018,-1.8738 9.3675,-7.3194 9.3675,-7.3194 0,0 -2.0041,0.0436 -6.6664,-1.6989 -4.6629,-1.7425 -10.196,-7.0148 -10.327,-7.3194 -0.13064,-0.30522 -0.21767,-0.78432 0.87207,-1.0023 0.82737,-0.69661 -1.0464,-2.9624 -1.8744,-3.7897 -0.82736,-0.82789 -6.3617,-10.238 -6.4919,-10.456 -0.13064,-0.21789 -0.17449,-0.43549 -0.56632,-0.69711 -1.2203,-0.39247 -6.5799,0.56631 -6.5799,0.56631 0,0 -8.2424,-4.0482 -11.084,-12.776 0.0416,1.5288 -1.4134,3.198 0,6.7101 -4.2976,-1.818 -7.989,-4.9187 -10.901,-12.581 -1.7329,4.3582 0,7.1291 0,7.1291 0,0 -10.12,-2.8278 -11.739,-12.161 -1.7771,4.1896 0,6.7096 0,6.7096 0,0 -16.498,-8.6084 -43.912,-8.7334 -18.353,-1.6835 -22.175,-33.968 -20.474,-39.405 0,0 -26.474,-13.952 -78.586,-20.116 -52.112,-6.1645 -94.849,-0.92895 -94.849,-0.92895 0,0 92.295,-4.4294 166.24,25.505 2.5135,11.242 10.075,29.966 14.148,38.967 -11.653,8.0569 -24.793,15.633 -26.841,42.503 -2.0456,26.869 21.056,50.505 49.703,51.235 27.202,1.449 45.997,1.6548 68.779,13.465 21.745,12.023 39.573,48.658 41.339,81.607 1.9057,-24.446 -7.2685,-77.017 -50.08,-92.982 59.836,10.471 65.098,54.828 65.098,54.828 z m -161.94,-180.2 -2.153,-6.9445 c 0,0 -35.525,-6.3085 -83.29,-2.9135 -47.765,3.3952 -95.99,20.115 -95.99,20.115 0,0 98.679,-24.83 181.43,-10.257"
       stroke-width="2.2961"
       id="path1477"
       style="opacity:0.5;mix-blend-mode:normal;filter:url(#filter2876)" />
    <path
       d="m470.65 215.7s-28.2-1.8765-76.225 13.151c-48.941 15.314-76.698 37.02-76.698 37.02s72.944-40.728 155.28-43.042zm105.19 44.282 3.6664-0.23914s-21.005-25.486-61.211-37.899c22.601 9.1868 42.273 21.36 57.544 38.138zm6.0001 10.589c0.56369-0.97735 2.3833 3.1048 3.7653 4.8197 0.0585 0.34241 0.15568 0.5514-0.64548 0.38654-0.0675-0.35201-0.18368-0.45409-0.18368-0.45409s-1.9339-1.1507-2.5268-1.9669c-0.5934-0.81626-0.6987-2.244-0.40944-2.7854zm49.34 121.32s4.4592-51.196-75.973-62.997c-10.195-1.4958-23.087-2.6469-36.126-2.68-64.467 0.85235-66.816-74.354-18.239-78.149 20.132-1.6612 44.172 9.199 67.675 20.144-0.0872 2.9188 0.0335 5.5126 1.951 7.9091 1.917 2.396 9.281 5.01 11.634 6.3601 2.353 1.3506 9.8908 6.1432 14.51 12.156 1.0018-1.8738 9.3675-7.3194 9.3675-7.3194s-2.0041 0.0436-6.6664-1.6989c-4.6629-1.7425-10.196-7.0148-10.327-7.3194-0.13064-0.30522-0.21767-0.78432 0.87207-1.0023 0.82737-0.69661-1.0464-2.9624-1.8744-3.7897-0.82736-0.82789-6.3617-10.238-6.4919-10.456-0.13064-0.21789-0.17449-0.43549-0.56632-0.69711-1.2203-0.39247-6.5799 0.56631-6.5799 0.56631s-8.2424-4.0482-11.084-12.776c0.0416 1.5288-1.4134 3.198 0 6.7101-4.2976-1.818-7.989-4.9187-10.901-12.581-1.7329 4.3582 0 7.1291 0 7.1291s-10.12-2.8278-11.739-12.161c-1.7771 4.1896 0 6.7096 0 6.7096s-16.498-8.6084-43.912-8.7334c-18.353-1.6835-22.175-33.968-20.474-39.405 0 0-26.474-13.952-78.586-20.116-52.112-6.1645-94.849-0.92895-94.849-0.92895s92.295-4.4294 166.24 25.505c2.5135 11.242 10.075 29.966 14.148 38.967-11.653 8.0569-24.793 15.633-26.841 42.503-2.0456 26.869 21.056 50.505 49.703 51.235 27.202 1.449 45.997 1.6548 68.779 13.465 21.745 12.023 39.573 48.658 41.339 81.607 1.9057-24.446-7.2685-77.017-50.08-92.982 59.836 10.471 65.098 54.828 65.098 54.828zm-161.94-180.2-2.153-6.9445s-35.525-6.3085-83.29-2.9135c-47.765 3.3952-95.99 20.115-95.99 20.115s98.679-24.83 181.43-10.257"
       stroke-width="2.2961"
       id="path32"
       style="fill:#121212;fill-opacity:1" />
    <path
       id="path1414"
       d="m 1302.9473,660.25 c -95.4076,0.10903 -158.5039,7.83789 -158.5039,7.83789 0,0 22.3914,-1.06529 60.2773,-0.83398 64.1739,-3.86112 174.9915,-6.46646 300.207,8.3457 179.5741,21.24068 278.3164,66.82107 294.3985,74.72461 0.1787,-1.02438 0.3818,-1.93664 0.6191,-2.69531 0,0 -100.0588,-52.73229 -297.0176,-76.0293 -73.8595,-8.73709 -142.7359,-11.41503 -199.9804,-11.34961 z m 258.5351,98.79492 c -34.1422,-0.0695 -71.4194,0.98217 -110.9101,3.78906 -180.5292,12.83226 -362.7969,76.02539 -362.7969,76.0254 0,0 18.3546,-4.61141 50.2324,-11.17969 66.0768,-19.54362 190.7215,-52.04278 314.5645,-60.84571 177.5778,-12.62172 309.701,10.12994 313.9961,10.88086 l -1.1993,-3.86914 c 0,0 -81.9503,-14.5525 -203.8867,-14.80078 z m 212.0899,8.96875 c 10.2259,42.78283 37.6758,110.65114 52.6523,143.74805 -44.0428,30.45127 -93.7048,59.08667 -101.4453,160.64258 -2.4276,31.8872 4.5204,62.5664 18.541,89.7422 -12.6754,-26.1709 -18.8503,-55.4096 -16.541,-85.7422 7.7405,-101.55591 57.4025,-130.19131 101.4453,-160.64258 -15.394,-34.01953 -43.9728,-104.78594 -53.4726,-147.27539 -0.3926,-0.1589 -0.787,-0.31428 -1.1797,-0.47266 z m -5.7696,46.95117 c -31.5702,-0.13338 -129.5841,3.83694 -277.0625,49.98438 -184.9738,57.87968 -289.8828,139.91798 -289.8828,139.91798 0,0 10.6748,-5.94128 29.9707,-15.48048 42.5998,-27.8073 132.6839,-80.00103 261.9121,-120.4375 175.2053,-54.82347 280.2922,-50.13519 287.4043,-49.74219 l -1.3105,-3.96289 c 0,0 -3.7458,-0.24852 -11.0313,-0.2793 z m 191.1094,23.5 c 12.6097,5.12557 24.9707,10.50542 37.0801,16.14258 112.4375,43.18813 177.8378,110.52614 192.8476,127.18946 l 1.42,-0.0918 c 0,0 -79.388,-96.32496 -231.3477,-143.24024 z m -138.5976,12.90821 c 12.3515,25.62661 31.2933,46.64475 59.0136,49.1875 103.612,0.47244 165.9668,33.00781 165.9668,33.00781 0,0 -6.2331,-8.84687 -0.6758,-23.66016 -0.5325,-1.82529 -0.9812,-3.71989 -1.3242,-5.69726 -6.7166,15.83471 0,25.35742 0,25.35742 0,0 -62.3548,-32.53537 -165.9668,-33.00781 -26.264,-2.40918 -44.6485,-21.4026 -57.0136,-45.1875 z m 228.5957,68.82031 c 11.3834,25.76895 40.7519,33.98047 40.7519,33.98047 0,0 -6.4028,-10.2568 -0.1953,-26.42774 -0.6093,-1.46071 -1.2123,-2.9589 -1.8047,-4.51757 -6.5495,16.47193 0,26.94336 0,26.94336 0,0 -26.2781,-7.36197 -38.7519,-29.97852 z m 45.1972,17.48437 c 10.2312,21.47186 22.6263,31.12438 36.7559,37.10157 -4.9613,-12.32803 -0.5777,-18.6483 -0.053,-24.11524 -0.7013,-1.6992 -1.3596,-3.44141 -1.9472,-5.24609 0.1572,5.77814 -5.342,12.08725 0,25.36133 -13.2213,-5.59296 -24.9236,-14.40114 -34.7559,-33.10157 z m 39.9785,19.9043 c 12.6858,27.3489 38.67,40.12305 38.67,40.12305 0,0 20.2569,-3.62398 24.8691,-2.14063 1.4809,0.9888 1.6469,1.81125 2.1406,2.63477 0.4921,0.82394 21.4082,36.39048 24.5352,39.51958 1.4764,1.4751 3.8254,4.1596 5.5742,6.8613 -1.1119,-3.6378 -5.3408,-8.6298 -7.5742,-10.8613 -3.127,-3.1291 -24.0431,-38.69564 -24.5352,-39.51958 -0.4937,-0.82352 -0.6597,-1.64597 -2.1406,-2.63477 -4.6122,-1.48335 -24.8691,2.14063 -24.8691,2.14063 0,0 -23.4471,-11.52758 -36.67,-36.12305 z m 14.584,59.16597 c -0.1007,8.3306 0.5979,15.9681 4.8477,23.1133 -2.8434,-6.8673 -3.029,-14.1914 -2.791,-22.1582 -0.6848,-0.3189 -1.3717,-0.6362 -2.0567,-0.9551 z m 52.3887,16.9454 c 0.3515,1.2646 0.8561,2.4851 1.5684,3.4648 2.2408,3.0849 9.5507,7.4336 9.5507,7.4336 0,0 0.4402,0.3864 0.6953,1.7168 3.0281,0.6231 2.6606,-0.1668 2.4395,-1.4609 -0.6262,-0.7771 -1.2786,-1.6899 -1.9414,-2.6758 -0.1864,0.3799 -0.7983,0.4865 -2.4981,0.1367 -0.2551,-1.3304 -0.6953,-1.7168 -0.6953,-1.7168 0,0 -6.5015,-3.8701 -9.1191,-6.8984 z m 26.9336,20.1621 c -0.3404,0.6871 -0.1442,1.4096 0.098,1.9746 0.4952,1.1512 21.4077,21.0782 39.0313,27.664 8.3768,3.1308 14.416,4.7087 18.5176,5.5313 2.6984,-1.8156 4.6777,-3.1113 4.6777,-3.1113 0,0 -7.574,0.1659 -25.1953,-6.42 -14.7702,-5.5195 -31.6938,-20.284 -37.1289,-25.6386 z m -445.0195,87.7968 c 25.8757,53.5669 85.3225,96.547 180.9082,95.2832 49.2812,0.1251 98.0067,4.4755 136.539,10.129 165.9813,24.3527 236.3076,93.0913 265.9571,150.4882 -28.4273,-58.1645 -98.0971,-129.5664 -267.9571,-154.4882 -38.5323,-5.6535 -87.2578,-10.0039 -136.539,-10.129 -93.1951,1.2322 -152.0405,-39.593 -178.9082,-91.2832 z m 358.5761,136.295 c 69.7991,26.029 115.9236,77.8087 145.252,135.6894 -26.9336,-54.8416 -68.6741,-104.6515 -130.9766,-132.9609 -4.6674,-0.9649 -9.4196,-1.8788 -14.2754,-2.7285 z m 225.8614,148.1777 c 15.2097,31.1546 18.0942,54.391 18.1582,54.918 0.011,-0.1303 0.1593,-2.1252 0.1504,-5.6953 -2.3835,-10.4128 -7.5549,-28.2114 -18.3086,-49.2227 z m 18.1582,54.918 c -4e-4,0 -0.01,0.1191 -0.01,0.1191 l 0.025,0.01 c 0,0 -0.019,-0.1229 -0.019,-0.1289 z m -105.5098,-37.4434 c 27.3708,55.4071 45.4719,120.2863 48.7676,181.7754 0.3247,-4.1655 0.5623,-8.5538 0.709,-13.1289 -5.5761,-57.7741 -23.5596,-117.4557 -49.4766,-168.6465 z"
       transform="matrix(0.26458333,0,0,0.26458333,-0.01020621,-0.17898406)"
       style="opacity:0.30136221;mix-blend-mode:normal;fill:#ffffff;fill-opacity:1;filter:url(#filter1447)"
       clip-path="url(#clipPath1)" />
    <path
       id="path3"
       clip-path="url(#clipPath5)"
       style="opacity:0.827726;mix-blend-mode:normal;fill:#000000;fill-opacity:1;filter:url(#filter5)"
       d="m 1302.9468,660.2507 c -95.4075,0.10903 -158.5039,7.83789 -158.5039,7.83789 0,0 15.4645,-0.45196 37.1523,-0.66211 58.3241,-4.41938 180.18,-9.85235 321.3711,6.84961 195.4018,23.11285 294.8568,74.93592 296.4258,75.75782 0.1642,-0.89179 0.3411,-1.72752 0.5527,-2.4043 0,0 -100.0589,-52.73231 -297.0175,-76.0293 -73.8595,-8.73708 -142.7361,-11.41503 -199.9805,-11.34961 z m 258.5352,98.79493 c -34.1422,-0.0695 -71.4195,0.98217 -110.9102,3.78906 -180.529,12.83225 -362.7969,76.02538 -362.7969,76.02539 0,0 17.1655,-3.76238 27.0703,-6.02539 54.988,-17.24575 194.2154,-57.26264 335.7657,-67.32422 180.5289,-12.83148 314.7968,11.01172 314.7968,11.01172 l 0.3321,1.07226 c 0.051,0.009 0.7938,0.1151 0.8281,0.1211 l -1.1992,-3.86914 c 0,0 -81.9505,-14.5525 -203.8867,-14.80078 z m 206.3203,55.91992 c -31.5702,-0.13338 -129.5843,3.83698 -277.0625,49.98437 -184.9736,57.87963 -289.8829,139.91798 -289.8829,139.91798 0,0 9.4957,-4.8483 13.8555,-7.15626 30.1967,-21.32852 124.2259,-82.5739 276.0664,-130.08594 181.5117,-56.79679 288.0938,-49.70507 288.0938,-49.70507 l 0.4238,1.2832 c 0.081,0.004 0.7829,3.3e-4 0.8477,0.004 l -1.3106,-3.9629 c 0,0 -3.7457,-0.24851 -11.0312,-0.27929 z m 191.1093,23.5 c 9.2922,3.77707 18.3034,7.84204 27.3243,11.89648 45.8157,16.80929 83.9567,37.73232 114.5586,58.04688 48.8567,32.10929 78.5627,62.86196 88.0449,73.38867 l 1.4199,-0.0918 c 0,0 -79.3881,-96.325 -231.3477,-143.24023 z m -138.5976,12.9082 c 7.0553,14.6383 16.3514,27.62937 28.1152,36.67578 1.7799,1.27136 3.4752,2.68145 5.3692,3.75977 0.043,0.0268 0.09,0.0476 0.1328,0.0742 7.0043,3.96493 14.7913,6.56059 23.4355,7.35351 103.6119,0.47244 165.9668,33.00782 165.9668,33.00782 0,0 -0.7045,-1.36292 -1.4394,-3.30274 -3.7045,-1.88359 -64.1468,-31.92297 -164.5664,-32.38086 -26.264,-2.40918 -44.6486,-21.40262 -57.0137,-45.1875 z m 222.9805,52.83789 c -2.1786,5.13599 -2.7006,9.31533 -2.7403,13.01367 0.3365,-3.05096 1.1512,-6.49961 2.7793,-10.33789 0.23,1.32579 0.7846,2.38161 1.1016,3.63868 0.076,-0.21432 0.1022,-0.40031 0.1836,-0.61719 -0.5325,-1.82529 -0.9812,-3.7199 -1.3242,-5.69727 z m -217.9297,8.14063 c -43.8293,30.23519 -92.8953,59.15027 -100.586,160.05273 -0.4767,6.2626 -0.4888,12.4593 -0.2597,18.6113 -0.1103,-5.2785 -0.1091,-10.5781 0.2988,-15.9355 7.7405,-101.55582 57.4025,-130.19135 101.4453,-160.64259 -0.2558,-0.56523 -0.6355,-1.50072 -0.8984,-2.08594 z m 223.5449,7.84179 c 4.896,11.08314 13.0887,18.76076 20.8711,24.0918 9.5163,6.07845 17.9199,8.56446 17.9199,8.56446 0,0 -0.6,-1.27202 -1.2637,-3.10547 -3.2859,-1.01055 -25.9414,-8.54402 -37.5273,-29.55079 z m 38.7519,3.03516 c -2.0987,5.27843 -2.6206,9.65184 -2.6757,13.55078 0.3257,-3.23281 1.1214,-6.8676 2.7148,-10.875 0.436,1.14729 0.9063,2.09942 1.3516,3.19336 0.1604,-0.46258 0.2325,-0.87876 0.414,-1.35156 -0.6093,-1.46071 -1.2123,-2.95891 -1.8047,-4.51758 z m 6.4454,14.44922 c 7.1818,15.07232 15.4845,24.1297 24.6504,30.37109 3.2878,2.06123 6.6363,3.92219 10.1445,5.40625 -0.466,-1.15781 -0.4674,-1.99663 -0.7793,-3.05273 -12.9097,-5.6091 -24.3724,-14.38373 -34.0156,-32.72461 z m 34.7558,7.74023 c 0.1202,4.4178 -2.9802,9.20689 -2.0996,17.1211 0.013,-6.27804 2.244,-10.5758 2.1387,-14.44531 0.4488,1.37847 1.1165,2.54249 1.6328,3.85937 0.067,-0.38097 0.2397,-0.91758 0.2754,-1.28906 -0.7013,-1.6992 -1.3597,-3.44142 -1.9473,-5.2461 z m 5.2227,12.16407 c 6.2032,13.37332 15.5693,23.20837 23.539,29.82226 1.1442,0.89096 2.1375,1.62946 3.1817,2.375 2.2289,1.68531 4.3302,3.22451 6.0547,4.33203 1.992,1.18479 3.9336,2.26954 3.9336,2.26954 0,0 20.2569,-3.62398 24.8691,-2.14063 0.7183,0.47961 0.7521,0.85691 1.0391,1.27734 0.2289,0.0432 0.7396,-0.0117 0.9218,0.0469 1.4809,0.9888 1.647,1.81125 2.1407,2.63477 0.4921,0.82393 21.4081,36.39045 24.5351,39.51955 1.4764,1.4751 3.8254,4.1596 5.5742,6.8613 -1.1119,-3.6378 -5.3408,-8.6298 -7.5742,-10.8613 -3.127,-3.1291 -24.043,-38.69562 -24.5351,-39.51955 -0.4937,-0.82352 -0.6598,-1.64597 -2.1407,-2.63477 -4.6122,-1.48335 -24.8691,2.14062 -24.8691,2.14062 0,0 -23.447,-11.5276 -36.6699,-36.12304 z m 14.584,59.16606 c -0.01,0.4955 0.093,0.937 0.094,1.4277 0.01,-0.4679 -0.011,-0.9105 0,-1.3828 -0.032,-0.015 -0.064,-0.03 -0.096,-0.045 z m 52.3886,16.9453 c 0.3515,1.2646 0.8561,2.4851 1.5684,3.4648 1.0753,1.4804 3.3467,3.2355 5.3887,4.6777 0.8729,0.5578 2.2011,1.4317 2.2011,1.4317 0,0 0.026,0.065 0.027,0.066 0.6987,0.4416 1.9336,1.2578 1.9336,1.2578 0,0 0.1187,0.3412 0.1562,0.3867 0.9553,-0.088 1.1742,-0.5384 1.0176,-1.4551 -0.2637,-0.3272 -0.5646,-0.9354 -0.8359,-1.3046 -0.3653,0.1126 -0.5249,0.3198 -1.6426,0.09 -0.2551,-1.3304 -0.6953,-1.7168 -0.6953,-1.7168 0,0 -6.5016,-3.8701 -9.1192,-6.8984 z m 26.9336,20.1621 c -0.3404,0.6871 -0.1445,1.4096 0.098,1.9746 0.3578,0.8317 11.464,11.4211 24.1972,19.7422 4.2649,2.6602 8.6603,5.0233 12.8731,6.5976 12.5824,4.7026 18.532,5.6596 21.7695,5.9961 1.5966,-1.0638 3.3867,-2.2519 3.3867,-2.2519 0,0 -7.574,0.1659 -25.1953,-6.42 -14.7702,-5.5194 -31.6938,-20.284 -37.1289,-25.6386 z m -445.0195,87.7969 c 11.2242,23.2359 28.7882,44.4639 52.8555,60.9687 31.219,20.7687 73.0876,33.691 126.0918,32.9902 49.2812,0.1251 98.0068,4.4755 136.539,10.1289 83.5211,12.2543 142.7125,35.7764 184.7989,63.4082 0.5732,0.3698 1.1771,0.7303 1.7441,1.1016 2.0212,1.3471 3.9123,2.7206 5.8535,4.0859 38.1266,26.3504 61.4801,56.0348 75.5215,83.2168 -28.4273,-58.1644 -98.0972,-129.5665 -267.957,-154.4882 -38.5323,-5.6535 -87.258,-10.0038 -136.5391,-10.1289 -93.195,1.2322 -152.0405,-39.5931 -178.9082,-91.2832 z m 360.9707,136.7519 c 16.1203,6.3545 30.9401,14.0993 44.5664,22.9824 0.7367,0.4703 1.4636,0.947 2.1934,1.4239 5.6181,3.7478 11.0836,7.6366 16.2929,11.7558 3.6789,2.8545 7.1693,5.8614 10.6524,8.8848 0.056,0.05 0.1116,0.1005 0.1679,0.1504 29.3737,25.5426 52.0831,56.6797 68.9844,90.0351 -26.9336,-54.8415 -68.6741,-104.6515 -130.9765,-132.9609 -3.8846,-0.8031 -7.8681,-1.5467 -11.8809,-2.2715 z"
       transform="matrix(0.26458333,0,0,0.26458333,-0.01020621,-0.17898406)" />
    <g
       id="path1">
      <path
         id="path4"
         style="color:#000000;fill:#000000;fill-opacity:1;stroke-linecap:round;stroke-linejoin:round;-inkscape-stroke:none;opacity:1;filter:url(#filter6)"
         d="m 367.69332,177.82429 c 30.93975,3.06 68.20736,9.41942 102.09196,23.13657 a 1.9845734,1.9845734 0 0 1 1.19114,1.40612 c 2.43096,10.87283 9.99266,29.68244 14.01982,38.58214 a 1.9845734,1.9845734 0 0 1 -0.68007,2.44895 c -5.87415,4.06139 -11.84975,7.85338 -16.5995,13.80277 -4.74975,5.94941 -8.39001,14.09063 -9.39064,27.21901 -1.95306,25.65352 20.19173,48.39849 47.77538,49.1014 a 1.9845734,1.9845734 0 0 1 0.0548,0.002 c 27.16344,1.44695 46.41644,1.67233 69.58594,13.68341 a 1.9845734,1.9845734 0 0 1 0.047,0.0258 c 11.41842,6.31335 21.45875,18.78078 28.97653,33.80465 1.62594,3.24934 3.07122,6.66555 4.44314,10.1229 -0.95572,-3.17585 -1.86712,-6.36126 -3.14813,-9.50795 -7.26515,-17.84624 -19.8852,-34.44943 -40.66625,-42.19897 a 1.9845734,1.9845734 0 0 1 1.03715,-3.81269 c 29.50059,5.16245 46.15051,18.55896 55.39248,31.03118 -0.0569,-0.0922 -0.0926,-0.179 -0.15038,-0.2713 -8.61661,-13.75897 -26.95053,-29.17399 -66.75355,-35.01389 -10.10192,-1.48213 -22.9183,-2.62543 -35.8438,-2.65823 l 0.031,-0.002 c -33.00519,0.43637 -50.80206,-18.92632 -53.50371,-39.05033 -1.35083,-10.062 0.99698,-20.30944 6.93343,-28.33005 5.93512,-8.01884 15.49381,-13.73845 28.14247,-14.72882 20.96741,-1.73014 45.15891,9.37076 68.67591,20.32228 a 1.9845734,1.9845734 0 0 1 1.14463,1.85725 c -0.0845,2.82908 0.0107,4.72865 1.51722,6.61148 0.40406,0.50502 2.64133,1.92607 4.95164,3.01739 2.3103,1.09132 4.649,2.0172 6.12107,2.86184 2.2907,1.31484 8.70656,5.45657 13.58367,11.00759 0.20738,-0.17472 0.32061,-0.39542 0.55087,-0.58807 0.9878,-0.82643 2.15583,-1.70125 3.28714,-2.51561 0.33051,-0.23791 0.32245,-0.21545 0.64078,-0.43925 -0.85903,-0.25027 -1.39704,-0.32366 -2.53318,-0.74828 -2.70509,-1.01088 -5.33359,-2.86092 -7.40264,-4.5036 -1.03454,-0.82134 -1.91645,-1.59236 -2.56419,-2.1916 -0.32386,-0.29962 -0.58909,-0.55305 -0.7953,-0.76377 -0.1031,-0.10535 -0.18928,-0.19862 -0.27698,-0.29869 -0.0877,-0.10007 -0.11226,0.0696 -0.416,-0.63666 a 1.9845734,1.9845734 0 0 1 -0.002,-0.002 c -0.14961,-0.3496 -0.45388,-1.2701 0.047,-2.23036 -0.0605,0.0922 -0.0623,0.1818 -0.1447,0.2713 -0.57445,0.62392 -1.25872,0.69318 -1.62315,0.69918 -0.36444,0.006 -0.60749,-0.0414 -0.88109,-0.0977 a 1.9845734,1.9845734 0 0 1 -1.54874,-1.57045 c -8e-4,-0.004 0.0147,0.0804 0.0842,0.20929 0.0695,0.12885 0.37104,0.45475 0.37104,0.45475 l 0.29507,0.21498 c 0,0 -0.54106,-0.32201 -1.16427,-0.75758 -0.62321,-0.43556 -1.31406,-0.86886 -1.95285,-1.74821 -0.58744,-0.80807 -0.80452,-1.63469 -0.90072,-2.42208 -0.0962,-0.78739 -0.18772,-1.46809 0.34572,-2.46652 a 1.9845734,1.9845734 0 0 1 0.0899,-0.0568 l -0.0584,0.002 c 0.16762,-0.29062 0.45472,-0.64997 0.91777,-0.89245 0.44135,-0.23111 0.98316,-0.26284 1.39062,-0.19534 -1.26262,-2.09793 -2.46592,-4.13292 -2.53112,-4.24419 -0.17514,-0.0127 -0.12067,-0.007 -0.41392,0.008 -0.59063,0.0304 -1.33809,0.10746 -2.05466,0.19896 -1.43314,0.18306 -2.73472,0.41599 -2.73472,0.41599 a 1.9845734,1.9845734 0 0 1 -1.22473,-0.17156 c 0,0 -4.61413,-2.33013 -8.38243,-7.16029 a 1.9845734,1.9845734 0 0 1 -2.59984,1.1405 c -2.99254,-1.26593 -5.77881,-3.40088 -8.22637,-6.77168 a 1.9845734,1.9845734 0 0 1 -2.43551,1.4025 c 0,0 -5.71134,-1.63072 -9.68158,-6.38101 a 1.9845734,1.9845734 0 0 1 -2.44172,0.77773 c 0,0 -15.99985,-8.38489 -43.00202,-8.50801 a 1.9845734,1.9845734 0 0 1 -0.17157,-0.008 c -5.15651,-0.47301 -9.34173,-3.14896 -12.49794,-6.77736 -3.15622,-3.62841 -5.38412,-8.20987 -6.95927,-12.85762 -1.57515,-4.64774 -2.48943,-9.36731 -2.9099,-13.32218 -0.32134,-3.02284 -0.3121,-5.30048 -0.0527,-7.22075 -3.00694,-1.51373 -28.03975,-13.59477 -76.69351,-19.34972 -10.43409,-1.23428 -20.31505,-1.91791 -29.72273,-2.36885 z m 49.23059,25.54263 c -9.99031,-0.11241 -21.1061,0.13019 -32.98662,0.97462 -16.6696,1.18489 -33.31608,4.03642 -48.03325,7.20317 35.49007,-5.15816 84.79351,-9.21955 130.50832,-1.74201 l -0.85163,-2.74815 c -2.30225,-0.39041 -20.55001,-3.3716 -48.63682,-3.68763 z m 48.51538,14.78152 c -10.03873,0.1712 -34.59504,1.91432 -70.42154,13.12479 -17.80174,5.57029 -32.69074,11.96955 -44.50581,17.85575 28.62641,-11.65389 72.27181,-25.79681 119.79837,-27.60555 l -1.10122,-3.33003 c -0.65716,-0.0306 -1.28585,-0.0874 -3.7698,-0.045 z m 122.12898,58.51736 c -0.0462,0.21612 -0.19637,0.4501 -0.34778,0.68782 0.12581,-0.23422 0.32581,-0.3423 0.49247,-0.51005 -0.0446,-0.0654 -0.0952,-0.11017 -0.14469,-0.17777 z" />
    </g>
    <path
       id="path7"
       style="mix-blend-mode:normal;fill:#000000;fill-opacity:1;filter:url(#filter8)"
       d="m 318.37075,175.48231 c -9.7664,0.5861 -15.57011,1.28261 -15.57011,1.28261 0,0 92.29505,-4.42895 166.23998,25.50542 2.45172,10.96569 9.66145,28.91431 13.79657,38.15013 0.11624,-0.0801 0.23545,-0.16168 0.3514,-0.24185 -4.07299,-9.00099 -11.63447,-27.72462 -14.14797,-38.96661 -55.46411,-22.45297 -121.24999,-25.57286 -150.66987,-25.7297 z m 157.75058,22.27564 c -0.12951,0.77318 -0.21583,1.66782 -0.20929,2.90422 0.0394,-1.20056 0.13311,-2.24351 0.32349,-2.85202 0,0 -0.11245,-0.0513 -0.1142,-0.0522 z m -70.14301,8.32921 c -46.32035,0.61756 -87.8445,8.26485 -106.8157,12.28762 -6.9445,2.08505 -11.35538,3.57343 -11.35538,3.57343 0,0 98.67883,-24.83024 181.42975,-10.25726 h 0.003 l -0.3452,-1.11311 c -20.58513,-3.59645 -42.14307,-4.76764 -62.91657,-4.49068 z m 66.68327,15.69775 c -69.37501,2.04108 -131.47934,31.05634 -149.33042,40.13089 -3.63798,2.44126 -5.60431,3.95531 -5.60431,3.95531 0,0 72.94401,-40.72834 155.27993,-43.04233 z m 45.63391,0.0589 c 22.60097,9.18679 42.27279,21.36026 57.54377,38.13824 h 5.2e-4 l 3.3852,-0.22513 c 0,0 -0.78441,-0.82384 -0.93379,-0.99735 l -2.45141,0.16415 h -5.2e-4 c -12.41311,-13.63808 -27.77186,-24.19493 -45.21016,-32.61713 -3.89958,-1.60095 -7.98186,-3.11924 -12.33361,-4.46278 z m 21.61056,20.02204 c -0.14971,1.21767 10e-4,2.1056 0.20516,2.79518 0.0591,0.0297 0.51056,0.22892 0.51056,0.22892 0,0 -0.67185,-1.14457 -0.71572,-3.0241 z m -35.24436,4.97282 c -1.28769,0.009 -2.56115,0.0641 -3.8194,0.16795 -22.7866,1.78016 -34.36599,19.27337 -33.58607,37.25871 -0.28813,-17.60668 11.24784,-34.45524 33.58607,-36.20038 20.1318,-1.66118 44.17164,9.19858 67.67442,20.14348 0.001,-0.3526 -0.0103,-0.69545 5.2e-4,-1.05782 C 546.4832,256.88968 523.97712,246.7031 504.6617,246.83867 Z m 46.99972,0.19689 c -0.15595,1.38813 0.0287,2.39299 0.25063,3.14192 0.0922,0.0288 0.44855,0.16382 0.44855,0.16382 0,0 -0.66909,-1.2717 -0.69918,-3.30574 z m 11.04842,6.59546 c -0.0315,0.57862 0.0604,1.24886 0.23926,1.99626 0.10732,0.0474 0.20456,0.12068 0.31264,0.1664 -0.33008,-0.82022 -0.47911,-1.52178 -0.5519,-2.16266 z m 5.80636,15.65641 c -0.008,2.47927 0.27703,4.73743 1.95182,6.83059 1.917,2.396 9.28092,5.01024 11.63392,6.36034 2.35299,1.35059 9.89103,6.14305 14.51022,12.15584 1.0018,-1.8738 8.81654,-6.97348 8.81654,-6.97348 0,0 -0.57976,-0.0478 -1.3069,-0.16123 -1.84588,1.22541 -6.65979,4.4868 -7.50964,6.07638 -4.61919,-6.0128 -12.15723,-10.80525 -14.51022,-12.15585 -2.353,-1.3501 -9.71692,-3.96434 -11.63392,-6.36033 -1.43653,-1.79539 -1.86412,-3.7017 -1.95182,-5.77226 z m 13.5909,0.0811 c -0.1064,-0.0214 -0.1967,0.022 -0.26716,0.14418 -0.16661,0.31183 -0.15801,0.903 -0.045,1.5167 0.026,-0.14384 -0.006,-0.36213 0.045,-0.45837 0.50822,-0.88118 2.0258,2.24569 3.33468,4.14704 0.44049,0.0393 0.47975,-0.10003 0.43098,-0.38551 -1.20925,-1.50054 -2.75369,-4.81399 -3.4985,-4.96404 z m 7.48843,6.58882 c -0.0113,0.0113 -0.0107,0.0292 -0.0233,0.0398 -1.08974,0.21798 -1.00242,0.69731 -0.87178,1.00252 0.008,0.0194 0.20737,0.20403 0.25787,0.26149 0.14304,-0.0803 0.34148,-0.15118 0.61391,-0.20567 0.27001,-0.22734 0.19836,-0.6411 0.0233,-1.09813 z m -133.32467,11.89326 c 0.46404,25.12229 22.60626,46.4318 49.7799,47.12425 27.20198,1.449 45.99678,1.65514 68.77875,13.46533 21.74498,12.02299 39.57308,48.65794 41.33908,81.60691 0.13706,-1.75817 0.19731,-3.69555 0.21136,-5.72059 -0.0302,1.64002 -0.098,3.20774 -0.21136,4.66225 -1.766,-32.94896 -19.5941,-69.58392 -41.33908,-81.6069 -22.78197,-11.81019 -41.57677,-12.01633 -68.77875,-13.46533 -26.79297,-0.68276 -48.72557,-21.40434 -49.7799,-46.06592 z m 109.8181,48.15623 c 1.6274,0.60688 3.18973,1.28353 4.72116,1.99264 55.24744,11.88862 60.34694,53.66285 60.37047,53.85873 0.002,-0.024 0.0668,-0.89282 0.0212,-2.40967 -0.0116,0.56396 -0.02,1.33711 -0.0212,1.35134 6e-5,4.6e-4 0.006,0.0351 0.006,0.0351 l -0.007,-0.003 c 0,0 4.9e-4,-0.0322 5.1e-4,-0.0326 -0.0242,-0.20135 -5.39208,-44.34592 -65.09163,-54.79304 z m 65.09163,55.85137 c -2e-5,3.4e-4 -5.1e-4,0.0326 -5.1e-4,0.0326 l 0.007,0.003 c 0,0 -0.006,-0.0347 -0.006,-0.0351 z"
       sodipodi:nodetypes="cccccccccccccccccscccccccccccccccsccscccccscccccccccsccccccscscccccsccsccccccccccccccccscccccccccccc" />
  </g>
</svg>
